[
null,
{"id":1,"battlerName":"Actor1_1","characterIndex":0,"characterName":"$Actor1__00","classId":1,"equips":[1,0,1,6,0],"faceIndex":0,"faceName":"Actor1","traits":[{"code":11,"dataId":2,"value":0.5},{"code":11,"dataId":3,"value":1.5},{"code":52,"dataId":1,"value":1},{"code":52,"dataId":5,"value":1}],"initialLevel":1,"maxLevel":99,"name":"Harold","nickname":"","note":"","profile":"RPG Maker MV hero. He can use sword and magic.\nHe acts as an all-rounder in SRPG battle. "},
{"id":2,"battlerName":"Actor1_8","characterIndex":7,"characterName":"$Actor1__07","classId":2,"equips":[4,0,0,0,0],"faceIndex":7,"faceName":"Actor1","traits":[],"initialLevel":1,"maxLevel":99,"name":"Therese","nickname":"","note":"","profile":"Female warrior who use axe. She has high offensive and defensive power.\nShe can withstands attack and guards player behind her in SRPG battle."},
{"id":3,"battlerName":"Actor3_8","characterIndex":7,"characterName":"$Actor3__07","classId":3,"equips":[7,0,0,0,4],"faceIndex":7,"faceName":"Actor3","traits":[],"initialLevel":1,"maxLevel":99,"name":"Marcia","nickname":"","note":"","profile":"Female witch. She casts powerful attack magic.\nShe attacks indirectly from long distance in SRPG battle."},
{"id":4,"battlerName":"Actor2_7","characterIndex":6,"characterName":"$Actor2__06","classId":4,"equips":[10,0,0,0,0],"faceIndex":6,"faceName":"Actor2","traits":[],"initialLevel":1,"maxLevel":99,"name":"Lucius","nickname":"","note":"","profile":"Calm priest. He masters recovery magic.\nHe can healing allies and do long range attack by bow in SRPG Battle."},
{"id":5,"battlerName":"Actor3_5","characterIndex":4,"characterName":"$Actor3__04","classId":5,"equips":[13,0,0,0,0],"faceIndex":4,"faceName":"Actor3","traits":[],"initialLevel":3,"maxLevel":99,"name":"Alex","nickname":"","note":"","profile":"Adventurer. He uses spear with 2 squares range attack.\nHe fights as a middle fighter in SRPG Battle."},
{"id":6,"battlerName":"Actor2_1","characterIndex":0,"characterName":"$Actor2__00","classId":6,"equips":[2,0,0,0,0],"faceIndex":0,"faceName":"Actor2","traits":[],"initialLevel":5,"maxLevel":99,"name":"Oscar","nickname":"","note":"","profile":"General of the kingdom. He looks cold, but actually always\ncare for his subordinate. Fight automatically in battle. "},
{"id":7,"battlerName":"Actor1_7","characterIndex":6,"characterName":"Actor1","classId":2,"equips":[5,0,0,0,0],"faceIndex":6,"faceName":"Actor1","traits":[],"initialLevel":3,"maxLevel":99,"name":"Lord","nickname":"","note":"","profile":""},
{"id":8,"battlerName":"UberHarold","characterIndex":0,"characterName":"$Battler","classId":7,"equips":[21,0,0,0,0],"faceIndex":2,"faceName":"Actor3","traits":[{"code":43,"dataId":33,"value":1},{"code":43,"dataId":36,"value":1},{"code":43,"dataId":9,"value":1},{"code":43,"dataId":28,"value":1},{"code":43,"dataId":8,"value":1},{"code":43,"dataId":41,"value":1},{"code":43,"dataId":14,"value":1},{"code":43,"dataId":39,"value":1}],"initialLevel":99,"maxLevel":99,"name":"Super tester","nickname":"","note":"\n","profile":"This crazy guy can do everything.\nHe can move after action."},
{"id":9,"battlerName":"Actor1_1","characterIndex":0,"characterName":"$Actor1__00","classId":8,"equips":[22,0,0,0,0],"faceIndex":0,"faceName":"Actor1","traits":[],"initialLevel":1,"maxLevel":99,"name":"Swordsman","nickname":"","note":"<aiTarget: (dmg < b.hp? dmg : 1.5 * dmg) * b.mhp/(1 + b.hp)>\n<aiCounter: 0.5*dmg * a.mhp/(1 +a.hp)>\n<aiPos:[(1/(0.75 + 0.25 * f.ntd('foe'))) * (f.ntd('foe') < 6 ? (1 + 0.05 * ([2,3].contains(tr) ? tr*tr : 0)) * Math.min((f.ntw('friend',5)+3)/(f.ntw('foe',5)+2), 1.5): 1),(a.mhp/(a.hp + 1)) * Math.max(Math.min(0.75*a.mhp - a.hp, a.hp,0.2*a.mhp),0) * (f.isf('enemyFort') + f.isf('actorFort') + (f.ntd('foe') < 6 ? (f.ntd('foe')-1)/10:0)) + (f.isf('enemyFort') + f.isf('actorFort') * 0.25 * Math.max(5 - f.ntd('foe'), 0))*0.18*a.mhp]>\n","profile":"Standard battle unit with average ability."},
{"id":10,"battlerName":"Actor1_8","characterIndex":0,"characterName":"$Actor1__07","classId":9,"equips":[23,0,0,0,0],"faceIndex":7,"faceName":"Actor1","traits":[],"initialLevel":1,"maxLevel":99,"name":"general","nickname":"","note":"<aiTarget: (dmg < b.hp? dmg : 1.5 * dmg) * b.mhp/(1 + b.hp)>\n<aiCounter: 0.5*dmg * a.mhp/(1 +a.hp)>\n<aiPos:[(1/(0.7 + 0.3 * f.ntd('foe'))) * (f.ntd('foe') < 6 ? (1 + 0.06 * ([2,3].contains(tr) ? tr*tr : 0)) * Math.min((f.ntw('friend',5)+3)/(f.ntw('foe',5)+2), 1.3) : 1),(a.mhp/(a.hp + 1)) *Math.max(Math.min(0.7*a.mhp - a.hp, a.hp,0.2*a.mhp),0)  * (f.isf('enemyFort') + f.isf('actorFort') + (f.ntd('foe') < 6 ? (f.ntd('foe')-1)/10:0)) + (f.isf('enemyFort') + f.isf('actorFort') * 0.3 * Math.max(5 - f.ntd('foe'), 0))*0.2*a.mhp]>\n","profile":"Slow but powerful armored unit."},
{"id":11,"battlerName":"Actor1_6","characterIndex":0,"characterName":"$Actor1__05","classId":10,"equips":[24,0,0,0,0],"faceIndex":5,"faceName":"Actor1","traits":[],"initialLevel":1,"maxLevel":99,"name":"Archer","nickname":"","note":"<aiTarget: (dmg < b.hp? dmg : 1.5 * dmg) * b.mhp/(1 + b.hp)>\n<aiCounter: 0.6*dmg * a.mhp/(1 +a.hp)>\n<aiPos:[(f.ntd('foe') < 6 ? (1 + 0.05 * ([2,3].contains(tr) ? tr*tr : 0))*Math.min((f.ntw('friend',5)+2)/(f.ntw('foe',5)+1), 1.7):1)/(0.15 + 0.05 * f.ntd('foe') + 1/(f.ntd('foe') + 0.5)),(a.mhp/(a.hp + 1)) * Math.max(Math.min(0.8*a.mhp - a.hp, a.hp,0.2*a.mhp),0) * (f.isf('enemyFort') + f.isf('actorFort') + (f.ntd('foe') < 6 ? (f.ntd('foe')-1)/10:0)) + (f.isf('enemyFort') + f.isf('actorFort') * 0.25 * Math.max(5 - f.ntd('foe'), 0))*0.16*a.mhp]>\n","profile":"Fast, ranged battle unit. He can kill enemies from\n a very far distance."},
{"id":12,"battlerName":"Actor3_8","characterIndex":7,"characterName":"$Actor3__07","classId":11,"equips":[25,0,0,0,0],"faceIndex":7,"faceName":"Actor3","traits":[],"initialLevel":1,"maxLevel":99,"name":"Magi","nickname":"","note":"<aiTarget: (dmg < b.hp? dmg : 1.5 * dmg) * b.mhp/(1 + b.hp)>\n<aiCounter: 0.6*dmg * a.mhp/(1 +a.hp)>\n<aiPos:[(f.ntd('foe') < 6 ? (1 + 0.05 * ([2,3].contains(tr) ? tr*tr : 0))*Math.min((f.ntw('friend',5)+2)/(f.ntw('foe',5)+1), 2):1)/(0.05 + 0.05 * f.ntd('foe') + 1/(f.ntd('foe') + 0.5)),(a.mhp/(a.hp + 1)) * Math.max(Math.min(0.9*a.mhp - a.hp, a.hp,0.2*a.mhp),0) * (f.isf('enemyFort') + f.isf('actorFort') + (f.ntd('foe') < 6 ? (f.ntd('foe')-1)/10:0)) + (f.isf('enemyFort') + f.isf('actorFort') * 0.2 * Math.max(5 - f.ntd('foe'), 0))*0.16*a.mhp]>\n","profile":"Magic unit with powerful AoE skills. Can't counter attack."},
{"id":13,"battlerName":"Actor2_4","characterIndex":3,"characterName":"$Actor2__03","classId":12,"equips":[26,0,0,0,0],"faceIndex":3,"faceName":"Actor2","traits":[],"initialLevel":1,"maxLevel":99,"name":"Priest","nickname":"","note":"<aiPos:[(f.ntd('foe') < 6 ? (1 + 0.05 * ([2,3].contains(tr) ? tr*tr : 0))* Math.min((f.ntw('friend',5)+2)/(f.ntw('foe',5)+1), 3) : 1)/(0.05 * f.ntd('foe') + 1/(f.ntd('foe') + 0.5)),(a.mhp/(a.hp + 1)) * Math.max(Math.min(0.9*a.mhp - a.hp, a.hp,0.2*a.mhp),0) * (f.isf('enemyFort') + f.isf('actorFort') + (f.ntd('foe') < 6 ? (f.ntd('foe')-1)/10:0)) + (f.isf('enemyFort') + f.isf('actorFort') * 0.2 * Math.max(5 - f.ntd('foe'), 0))*0.16*a.mhp]>\n","profile":"Magic unit with heal skills. She recovers mp each turn.\nShe also has an aura skill which reduces magic damage."},
{"id":14,"battlerName":"Actor2_7","characterIndex":2,"characterName":"$Crystal3","classId":13,"equips":[27,0,0,0,0],"faceIndex":4,"faceName":"Nature","traits":[],"initialLevel":1,"maxLevel":99,"name":"Home Crystal","nickname":"","note":"","profile":"The goal of the game.\nIt can't do anything."},
{"id":15,"battlerName":"Actor2_7","characterIndex":2,"characterName":"$Crystal3","classId":14,"equips":[27,0,0,0,0],"faceIndex":4,"faceName":"Nature","traits":[{"code":43,"dataId":1,"value":1}],"initialLevel":1,"maxLevel":99,"name":"Defense Crystal","nickname":"","note":"<aiTarget: (dmg < b.hp? dmg : 1.5 * dmg) * b.mhp/(1 + b.hp)>","profile":"Powerful AoE skill to defend itself.\nHowever, it can't do any counter attack or move."}
]