{
"autoplayBgm":false,"autoplayBgs":false,"battleback1Name":"RockCave","battleback2Name":"RockCave","bgm":{"name":"Dungeon3","pan":0,"pitch":100,"volume":90},"bgs":{"name":"","pan":0,"pitch":100,"volume":90},"disableDashing":false,"displayName":"","encounterList":[],"encounterStep":1,"height":13,"note":"","parallaxLoopX":false,"parallaxLoopY":false,"parallaxName":"","parallaxShow":true,"parallaxSx":0,"parallaxSy":0,"scrollType":0,"specifyBattleback":true,"tilesetId":4,"width":17,
"data":[1536,1536,1536,1536,1536,1536,1536,1536,1536,1536,1536,1536,1536,1536,1536,1536,1536,1536,1536,1536,1536,1536,1536,1536,1536,1536,1536,1536,1536,1536,1536,1536,1536,1536,1536,5923,5921,5921,5921,5921,5921,5921,5921,5921,5921,5921,5921,5921,5921,5925,1536,1536,5920,6274,6274,6274,6274,6274,6274,6274,6274,6274,6274,6274,6274,6274,5920,1536,1536,5920,6280,6280,6280,6280,6280,6280,6280,6280,6280,6280,6280,6280,6280,5920,1536,1536,5920,1552,1552,1552,1552,1552,1552,1552,1552,1552,1552,1552,1552,1552,5920,1536,1536,5920,1552,1552,1552,1552,1552,1552,1552,1552,1552,1552,1552,1552,1552,5920,1536,1536,5920,1552,1552,1552,1552,1552,1552,1552,1552,1552,1552,1552,1552,1552,5920,1536,1536,5920,1552,1552,1552,1552,1552,1552,1552,1552,1552,1552,1552,1552,1552,5920,1536,1536,5920,1552,1552,1552,1552,1552,1552,1552,1552,1552,1552,1552,1552,1552,5920,1536,1536,5929,5921,5921,5921,5921,5921,5921,5921,5921,5921,5921,5921,5921,5921,5927,1536,1536,6283,6282,6282,6282,6282,6282,6282,6282,6282,6282,6282,6282,6282,6282,6286,1536,1536,1536,1536,1536,1536,1536,1536,1536,1536,1536,1536,1536,1536,1536,1536,1536,1536,0,0,0,0,0,0,0,0,0,0,0,0,0,0,0,0,0,0,0,0,0,0,0,0,0,0,0,0,0,0,0,0,0,0,0,0,0,0,0,0,0,0,0,0,0,0,0,0,0,0,0,0,0,0,0,0,0,0,0,0,0,0,0,0,0,0,0,0,0,0,0,0,0,0,0,0,0,0,0,0,0,0,0,0,0,0,0,0,0,0,0,0,0,0,0,0,0,0,0,0,0,0,0,0,0,0,0,0,0,0,0,0,0,0,0,0,0,0,0,0,0,0,0,0,0,0,0,0,0,0,0,0,0,0,0,0,0,0,0,0,0,0,0,0,0,0,0,0,0,0,0,0,0,0,0,0,0,0,0,0,0,0,0,0,0,0,0,0,0,0,0,0,0,0,0,0,0,0,0,0,0,0,0,0,0,0,0,0,0,0,0,0,0,0,0,0,0,0,0,0,0,0,0,0,0,0,0,0,0,0,0,0,0,0,0,0,0,0,0,0,0,0,0,0,0,0,0,0,0,0,0,0,0,0,0,0,0,0,0,0,0,0,0,0,0,0,0,0,0,0,0,0,0,0,0,0,0,0,0,0,0,0,0,0,0,0,0,0,0,0,0,0,0,0,0,0,0,0,0,0,0,0,0,0,0,0,0,0,0,0,0,0,0,0,0,0,0,0,0,0,0,0,0,0,0,0,0,0,0,0,0,0,0,0,0,0,0,0,0,0,0,0,0,0,0,0,0,0,0,0,0,0,0,0,0,0,0,0,0,0,0,0,0,0,0,0,0,0,0,0,0,0,0,0,0,0,0,0,0,0,0,0,0,0,0,0,0,0,0,0,0,0,0,0,0,0,0,0,0,0,0,0,0,0,0,0,0,0,0,0,0,0,0,0,0,0,0,0,0,0,0,0,0,0,0,0,0,0,0,0,0,0,0,0,0,0,0,0,0,0,0,0,0,0,0,0,0,0,0,0,0,0,0,0,0,0,0,0,0,0,0,0,0,0,0,0,0,0,0,0,0,0,0,0,0,0,0,0,0,0,0,0,0,0,0,0,0,0,0,0,0,0,0,0,0,0,0,0,0,0,0,0,0,0,0,0,0,0,0,0,0,0,0,0,0,0,0,0,0,0,0,0,0,0,0,0,0,0,0,0,0,0,0,0,0,0,0,0,0,0,0,0,0,0,0,0,0,0,0,0,0,0,0,0,0,0,0,0,0,0,0,0,0,0,0,0,0,0,0,0,0,0,0,0,0,0,0,0,0,0,0,0,0,0,0,0,0,0,0,0,0,0,0,0,0,0,0,0,0,0,0,0,0,0,0,0,0,0,0,0,0,0,0,0,0,0,0,0,0,0,0,0,0,0,0,0,0,0,0,0,0,0,0,0,0,0,0,0,0,0,0,0,0,0,0,0,0,0,0,0,0,0,0,0,0,0,0,0,0,0,0,0,0,0,0,0,0,0,0,0,0,0,0,0,0,0,0,0,0,0,0,0,0,0,0,0,0,0,0,0,0,0,0,0,0,0,0,0,0,0,0,0,0,0,0,0,0,0,0,0,0,0,0,0,0,0,0,0,0,0,0,0,0,0,0,0,0,0,0,0,0,0,0,0,0,0,0,0,0,0,0,0,0,0,0,0,0,0,0,0,5,0,0,0,0,0,0,0,0,0,0,0,0,0,0,0,0,5,0,0,5,0,0,0,0,0,0,0,0,0,0,0,0,0,5,0,0,5,0,0,0,0,0,0,0,0,0,0,0,0,0,5,0,0,5,0,0,0,0,0,0,0,0,0,0,0,0,0,5,0,0,5,0,0,0,0,0,0,0,0,0,0,0,0,0,5,0,0,5,0,0,0,0,0,0,0,0,0,0,0,0,0,5,0,0,0,0,0,0,0,0,0,0,0,0,0,0,0,0,5,0,0,0,0,0,0,0,0,0,0,0,0,0,0,0,0,5,0,0,0,0,0,0,0,0,0,0,0,0,0,0,0,0,0,0,0,0,0,0,0,0,0,0,0,0,0,0,0,0,0,0,0,0,0,0,0,0,0,0,0,0,0,0,0,0,0,0,0,0,0,0,0,0,0,0,0,0,0,0,0,0,0,0,0,0,0,0,0,0,0,0,0,0,0,0,0,0,0,0,0,0,0,0,0,0,0,0,0,0,0,0,0,0,0,0,0,0,0,0,0,0,0,0,0,0,0,0,0,0,0,0,0,0,0,0,0,0,0,0,0,0,0,0,0,0,0,0,0,0,0,0,0,0,0,0,0,0,0,0,0,0,0,0,0,0,0,0,0,0,0,0,0,0,0,0,0,0,0,0,0,0,0,0,0,0,0,0,0,0,0,0,0,0,0,0,0,0,0,0,0,0,0,0,0,0,0,0,0,0,0,0,0,0,0,0,0,0,0,0,0,0,0,0,0,0,0,0,0,0,0,0,0,0,0,0,0,0,0,0,0,0,0,0,0,0,0,0,0,0,0,0,0,0,0,0],
"events":[
null,
{"id":1,"name":"Start of Battle","note":"<type:battleStart>","pages":[{"conditions":{"actorId":1,"actorValid":false,"itemId":1,"itemValid":false,"selfSwitchCh":"A","selfSwitchValid":false,"switch1Id":16,"switch1Valid":false,"switch2Id":1,"switch2Valid":false,"variableId":1,"variableValid":false,"variableValue":0},"directionFix":false,"image":{"characterIndex":0,"characterName":"","direction":2,"pattern":0,"tileId":0},"list":[{"code":230,"indent":0,"parameters":[30]},{"code":222,"indent":0,"parameters":[]},{"code":230,"indent":0,"parameters":[30]},{"code":355,"indent":0,"parameters":["this.playerMoveTo(10, 6); "]},{"code":101,"indent":0,"parameters":["Package2",0,0,2]},{"code":401,"indent":0,"parameters":["Minotaur has a skill- Fear Aura, your mobility"]},{"code":401,"indent":0,"parameters":["and agility will be affected by that Aura!"]},{"code":101,"indent":0,"parameters":["Package2",0,0,2]},{"code":401,"indent":0,"parameters":["Click on the enemy/actor to see the aura range!"]},{"code":355,"indent":0,"parameters":["this.playerMoveTo(12, 7); "]},{"code":205,"indent":0,"parameters":[22,{"list":[{"code":2,"indent":null},{"code":0}],"repeat":false,"skippable":true,"wait":true}]},{"code":505,"indent":0,"parameters":[{"code":2,"indent":null}]},{"code":101,"indent":0,"parameters":["Package2",0,0,2]},{"code":401,"indent":0,"parameters":["This Minotaur stays on a magic circle, the magic"]},{"code":401,"indent":0,"parameters":["circle gives the Minotaur increadible buff!"]},{"code":401,"indent":0,"parameters":["Try to lead him away!"]},{"code":101,"indent":0,"parameters":["Package2",0,0,2]},{"code":401,"indent":0,"parameters":["Don't worry, I can teach you Aura skills!"]},{"code":355,"indent":0,"parameters":["$gameSystem.clearSrpgWinLoseCondition();"]},{"code":655,"indent":0,"parameters":["$gameSystem.setSrpgWinCondition('defeat all enemies');"]},{"code":655,"indent":0,"parameters":["$gameSystem.setSrpgLoseCondition('');"]},{"code":0,"indent":0,"parameters":[]}],"moveFrequency":3,"moveRoute":{"list":[{"code":0,"parameters":[]}],"repeat":true,"skippable":false,"wait":false},"moveSpeed":3,"moveType":0,"priorityType":0,"stepAnime":false,"through":false,"trigger":0,"walkAnime":true}],"x":0,"y":0},
{"id":2,"name":"Post-Action","note":"<type:afterAction>","pages":[{"conditions":{"actorId":1,"actorValid":false,"itemId":1,"itemValid":false,"selfSwitchCh":"A","selfSwitchValid":false,"switch1Id":1,"switch1Valid":true,"switch2Id":1,"switch2Valid":false,"variableId":14,"variableValid":false,"variableValue":10},"directionFix":false,"image":{"characterIndex":0,"characterName":"","direction":2,"pattern":0,"tileId":0},"list":[{"code":117,"indent":0,"parameters":[3]},{"code":0,"indent":0,"parameters":[]}],"moveFrequency":3,"moveRoute":{"list":[{"code":0,"parameters":[]}],"repeat":true,"skippable":false,"wait":false},"moveSpeed":3,"moveType":0,"priorityType":0,"stepAnime":false,"through":false,"trigger":0,"walkAnime":true}],"x":1,"y":0},
{"id":3,"name":"Actor1","note":"<type:actor><id:1>","pages":[{"conditions":{"actorId":1,"actorValid":false,"itemId":1,"itemValid":false,"selfSwitchCh":"A","selfSwitchValid":false,"switch1Id":1,"switch1Valid":false,"switch2Id":1,"switch2Valid":false,"variableId":1,"variableValid":false,"variableValue":0},"directionFix":false,"image":{"tileId":0,"characterName":"Actor1","direction":2,"pattern":1,"characterIndex":0},"list":[{"code":0,"indent":0,"parameters":[]}],"moveFrequency":3,"moveRoute":{"list":[{"code":0,"parameters":[]}],"repeat":true,"skippable":false,"wait":false},"moveSpeed":5,"moveType":0,"priorityType":1,"stepAnime":true,"through":false,"trigger":0,"walkAnime":true}],"x":3,"y":7},
{"id":4,"name":"Actor3","note":"<type:actor><id:3>","pages":[{"conditions":{"actorId":1,"actorValid":false,"itemId":1,"itemValid":false,"selfSwitchCh":"A","selfSwitchValid":false,"switch1Id":1,"switch1Valid":false,"switch2Id":1,"switch2Valid":false,"variableId":1,"variableValid":false,"variableValue":0},"directionFix":false,"image":{"tileId":0,"characterName":"Actor3","direction":2,"pattern":1,"characterIndex":7},"list":[{"code":0,"indent":0,"parameters":[]}],"moveFrequency":3,"moveRoute":{"list":[{"code":0,"parameters":[]}],"repeat":true,"skippable":false,"wait":false},"moveSpeed":5,"moveType":0,"priorityType":1,"stepAnime":true,"through":false,"trigger":0,"walkAnime":true}],"x":4,"y":6},
{"id":5,"name":"Actor2","note":"<type:actor><id:2>","pages":[{"conditions":{"actorId":1,"actorValid":false,"itemId":1,"itemValid":false,"selfSwitchCh":"A","selfSwitchValid":false,"switch1Id":1,"switch1Valid":false,"switch2Id":1,"switch2Valid":false,"variableId":1,"variableValid":false,"variableValue":0},"directionFix":false,"image":{"tileId":0,"characterName":"Actor1","direction":2,"pattern":1,"characterIndex":7},"list":[{"code":0,"indent":0,"parameters":[]}],"moveFrequency":3,"moveRoute":{"list":[{"code":0,"parameters":[]}],"repeat":true,"skippable":false,"wait":false},"moveSpeed":5,"moveType":0,"priorityType":1,"stepAnime":true,"through":false,"trigger":0,"walkAnime":true}],"x":4,"y":8},
{"id":6,"name":"Crazy Aura","note":"<type:unitEvent><SRPGAuraState:20><SRPGAuraRange:0><SRPGAuraTarget:all>","pages":[{"conditions":{"actorId":1,"actorValid":false,"itemId":1,"itemValid":false,"selfSwitchCh":"A","selfSwitchValid":false,"switch1Id":1,"switch1Valid":false,"switch2Id":1,"switch2Valid":false,"variableId":1,"variableValid":false,"variableValue":0},"directionFix":false,"image":{"tileId":0,"characterName":"!Door2","direction":6,"pattern":1,"characterIndex":4},"list":[{"code":0,"indent":0,"parameters":[]}],"moveFrequency":3,"moveRoute":{"list":[{"code":0,"parameters":[]}],"repeat":true,"skippable":false,"wait":false},"moveSpeed":4,"moveType":0,"priorityType":0,"stepAnime":true,"through":false,"trigger":0,"walkAnime":true}],"x":12,"y":7},
{"id":7,"name":"プレイヤーイベント","note":"<type:playerEvent>","pages":[{"conditions":{"actorId":1,"actorValid":false,"itemId":1,"itemValid":false,"selfSwitchCh":"A","selfSwitchValid":false,"switch1Id":1,"switch1Valid":false,"switch2Id":1,"switch2Valid":false,"variableId":1,"variableValid":false,"variableValue":0},"directionFix":false,"image":{"tileId":0,"characterName":"Package2","direction":2,"pattern":1,"characterIndex":0},"list":[{"code":101,"indent":0,"parameters":["Package2",0,0,2]},{"code":401,"indent":0,"parameters":["How can I help you?"]},{"code":112,"indent":0,"parameters":[]},{"code":102,"indent":1,"parameters":[["learn aura skills","forget aura skills","use map battle","use scene battle","leave battle"],-2,-1,2,0]},{"code":402,"indent":1,"parameters":[0,"learn aura skills"]},{"code":102,"indent":2,"parameters":[["Agile Aura(passive)","Attack Aura(active)","Fear Aura(passive)","Harold learn all"],1,0,2,0]},{"code":402,"indent":2,"parameters":[0,"Agile Aura(passive)"]},{"code":101,"indent":3,"parameters":["Package2",0,0,2]},{"code":401,"indent":3,"parameters":["Friends within this aura will speed up and move "]},{"code":401,"indent":3,"parameters":["further!"]},{"code":318,"indent":3,"parameters":[0,3,0,42]},{"code":101,"indent":3,"parameters":["Package2",0,0,2]},{"code":401,"indent":3,"parameters":["Marcia learned Agile Aura!"]},{"code":0,"indent":3,"parameters":[]},{"code":402,"indent":2,"parameters":[1,"Attack Aura(active)"]},{"code":101,"indent":3,"parameters":["Package2",0,0,2]},{"code":401,"indent":3,"parameters":["Friends within this aura will have higher attack!"]},{"code":401,"indent":3,"parameters":["Use the skill to activate the aura!"]},{"code":318,"indent":3,"parameters":[0,1,0,43]},{"code":101,"indent":3,"parameters":["Package2",0,0,2]},{"code":401,"indent":3,"parameters":["Harold learned Attack Aura!"]},{"code":0,"indent":3,"parameters":[]},{"code":402,"indent":2,"parameters":[2,"Fear Aura(passive)"]},{"code":101,"indent":3,"parameters":["Package2",0,0,2]},{"code":401,"indent":3,"parameters":["Enemies within this aura will have lower mobility and"]},{"code":401,"indent":3,"parameters":["Agility!"]},{"code":318,"indent":3,"parameters":[0,2,0,44]},{"code":101,"indent":3,"parameters":["Package2",0,0,2]},{"code":401,"indent":3,"parameters":["Therese learned fear Aura!"]},{"code":0,"indent":3,"parameters":[]},{"code":402,"indent":2,"parameters":[3,"Harold learn all"]},{"code":101,"indent":3,"parameters":["Package2",0,0,2]},{"code":401,"indent":3,"parameters":["Harold learned Agile Aura!"]},{"code":401,"indent":3,"parameters":["Harold learned Fear Aura!"]},{"code":401,"indent":3,"parameters":["Harold learned Attack Aura!"]},{"code":318,"indent":3,"parameters":[0,1,0,43]},{"code":318,"indent":3,"parameters":[0,1,0,44]},{"code":318,"indent":3,"parameters":[0,1,0,42]},{"code":0,"indent":3,"parameters":[]},{"code":404,"indent":2,"parameters":[]},{"code":0,"indent":2,"parameters":[]},{"code":402,"indent":1,"parameters":[1,"forget aura skills"]},{"code":102,"indent":2,"parameters":[["Agile Aura(passive)","Attack Aura(active)","Fear Aura(passive)","Harold Forget all"],1,0,2,0]},{"code":402,"indent":2,"parameters":[0,"Agile Aura(passive)"]},{"code":318,"indent":3,"parameters":[0,3,1,42]},{"code":101,"indent":3,"parameters":["Package2",0,0,2]},{"code":401,"indent":3,"parameters":["Marcia forgets Agile Aura!"]},{"code":0,"indent":3,"parameters":[]},{"code":402,"indent":2,"parameters":[1,"Attack Aura(active)"]},{"code":318,"indent":3,"parameters":[0,1,1,43]},{"code":101,"indent":3,"parameters":["Package2",0,0,2]},{"code":401,"indent":3,"parameters":["Harold forgets Attack Aura!"]},{"code":0,"indent":3,"parameters":[]},{"code":402,"indent":2,"parameters":[2,"Fear Aura(passive)"]},{"code":318,"indent":3,"parameters":[0,2,1,44]},{"code":101,"indent":3,"parameters":["Package2",0,0,2]},{"code":401,"indent":3,"parameters":["Therese forgets Fear Aura!"]},{"code":0,"indent":3,"parameters":[]},{"code":402,"indent":2,"parameters":[3,"Harold Forget all"]},{"code":318,"indent":3,"parameters":[0,1,1,43]},{"code":318,"indent":3,"parameters":[0,1,1,44]},{"code":318,"indent":3,"parameters":[0,1,1,42]},{"code":0,"indent":3,"parameters":[]},{"code":404,"indent":2,"parameters":[]},{"code":0,"indent":2,"parameters":[]},{"code":402,"indent":1,"parameters":[2,"use map battle"]},{"code":121,"indent":2,"parameters":[3,3,0]},{"code":0,"indent":2,"parameters":[]},{"code":402,"indent":1,"parameters":[3,"use scene battle"]},{"code":121,"indent":2,"parameters":[3,3,1]},{"code":0,"indent":2,"parameters":[]},{"code":402,"indent":1,"parameters":[4,"leave battle"]},{"code":242,"indent":2,"parameters":[1]},{"code":221,"indent":2,"parameters":[]},{"code":356,"indent":2,"parameters":["SRPGBattle End"]},{"code":117,"indent":2,"parameters":[2]},{"code":201,"indent":2,"parameters":[0,17,8,6,8,0]},{"code":222,"indent":2,"parameters":[]},{"code":0,"indent":2,"parameters":[]},{"code":403,"indent":1,"parameters":[6,null]},{"code":113,"indent":2,"parameters":[]},{"code":0,"indent":2,"parameters":[]},{"code":404,"indent":1,"parameters":[]},{"code":0,"indent":1,"parameters":[]},{"code":413,"indent":0,"parameters":[]},{"code":0,"indent":0,"parameters":[]}],"moveFrequency":3,"moveRoute":{"list":[{"code":0,"parameters":[]}],"repeat":true,"skippable":false,"wait":false},"moveSpeed":3,"moveType":0,"priorityType":1,"stepAnime":true,"through":false,"trigger":0,"walkAnime":true}],"x":8,"y":4},
{"id":8,"name":"min","note":"<type:enemy><id:7><mode:stand>","pages":[{"conditions":{"actorId":1,"actorValid":false,"itemId":1,"itemValid":false,"selfSwitchCh":"A","selfSwitchValid":false,"switch1Id":1,"switch1Valid":false,"switch2Id":1,"switch2Valid":false,"variableId":1,"variableValid":false,"variableValue":0},"directionFix":false,"image":{"tileId":0,"characterName":"Monster","direction":4,"pattern":1,"characterIndex":3},"list":[{"code":0,"indent":0,"parameters":[]}],"moveFrequency":3,"moveRoute":{"list":[{"code":0,"parameters":[]}],"repeat":true,"skippable":false,"wait":false},"moveSpeed":5,"moveType":0,"priorityType":1,"stepAnime":true,"through":false,"trigger":0,"walkAnime":true}],"x":10,"y":8},
null,
{"id":10,"name":"min","note":"<type:enemy><id:7><mode:stand>","pages":[{"conditions":{"actorId":1,"actorValid":false,"itemId":1,"itemValid":false,"selfSwitchCh":"A","selfSwitchValid":false,"switch1Id":1,"switch1Valid":false,"switch2Id":1,"switch2Valid":false,"variableId":1,"variableValid":false,"variableValue":0},"directionFix":false,"image":{"tileId":0,"characterName":"Monster","direction":4,"pattern":1,"characterIndex":3},"list":[{"code":0,"indent":0,"parameters":[]}],"moveFrequency":3,"moveRoute":{"list":[{"code":0,"parameters":[]}],"repeat":true,"skippable":false,"wait":false},"moveSpeed":5,"moveType":0,"priorityType":1,"stepAnime":true,"through":false,"trigger":0,"walkAnime":true}],"x":10,"y":6},
null,
null,
null,
null,
null,
null,
null,
null,
null,
null,
null,
{"id":22,"name":"min22","note":"<type:enemy><id:7><mode:stand>","pages":[{"conditions":{"actorId":1,"actorValid":false,"itemId":1,"itemValid":false,"selfSwitchCh":"A","selfSwitchValid":false,"switch1Id":1,"switch1Valid":false,"switch2Id":1,"switch2Valid":false,"variableId":1,"variableValid":false,"variableValue":0},"directionFix":false,"image":{"tileId":0,"characterName":"Monster","direction":4,"pattern":1,"characterIndex":3},"list":[{"code":0,"indent":0,"parameters":[]}],"moveFrequency":3,"moveRoute":{"list":[{"code":0,"parameters":[]}],"repeat":true,"skippable":false,"wait":false},"moveSpeed":5,"moveType":0,"priorityType":1,"stepAnime":true,"through":false,"trigger":0,"walkAnime":true}],"x":13,"y":7},
null,
null,
null,
null,
null,
null,
null,
null,
null,
null,
null,
null,
null,
null,
null,
null,
null,
null,
null,
null,
null,
null,
null,
null,
null,
null,
null,
null,
null,
null,
null,
null,
null
]
}