[
null,
{"id":1,"battlerName":"Actor1_5","characterIndex":4,"characterName":"Actor1","classId":1,"equips":[2,0,16,0,52],"faceIndex":4,"faceName":"Actor1","traits":[{"code":53,"dataId":5,"value":1}],"initialLevel":10,"maxLevel":99,"name":"シドニー","nickname":"“ソードブレイカー”","note":"<srpgReactionSkill:1>\n","profile":"“ソードブレイカー”の異名を持つ凄腕のニンジャ。\n多彩な忍術とカタナを振るう、寡黙な青年。"},
{"id":2,"battlerName":"Actor1_2","characterIndex":1,"characterName":"Actor1","classId":2,"equips":[11,0,32,0,53],"faceIndex":1,"faceName":"Actor1","traits":[{"code":53,"dataId":5,"value":1}],"initialLevel":10,"maxLevel":99,"name":"レイチェル","nickname":"","note":"<srpgReactionSkill:1>\n<srpgActorCommandOriginalId:47>","profile":"癒しの奇跡と拳による格闘術を修めた武装神官。\n勝ち気で勇敢な少女であり、誰かを守るために戦える。"},
{"id":3,"battlerName":"Actor1_7","characterIndex":6,"characterName":"Actor1","classId":3,"equips":[19,0,24,0,54],"faceIndex":6,"faceName":"Actor1","traits":[{"code":53,"dataId":5,"value":1}],"initialLevel":10,"maxLevel":99,"name":"パトリック","nickname":"","note":"<srpgReactionSkill:1>","profile":"帝国出身の神聖騎士。槍と自己バフを得意とする。\n実直で物静かな男だが、戦いでは単身突撃する勇猛さも持つ。"},
{"id":4,"battlerName":"Actor2_8","characterIndex":7,"characterName":"Actor2","classId":4,"equips":[28,0,32,0,55],"faceIndex":7,"faceName":"Actor2","traits":[{"code":53,"dataId":5,"value":1}],"initialLevel":10,"maxLevel":99,"name":"グレイス","nickname":"","note":"<srpgReactionSkill:1>","profile":"呪術と弓術を得意とする隠密。後衛からの支援が得意。\n気のいい姉御肌の女性だが、酒に弱いのが玉にキズ。"},
{"id":5,"battlerName":"Actor1_3","characterIndex":2,"characterName":"Actor1","classId":5,"equips":[36,2,24,0,56],"faceIndex":2,"faceName":"Actor1","traits":[{"code":53,"dataId":5,"value":1}],"initialLevel":10,"maxLevel":99,"name":"ギルバート","nickname":"","note":"<srpgReactionSkill:1>","profile":"巨大な戦斧を軽々と扱う重戦士。見た目通りの前衛向き。\nデバフ攻撃が得意で、シドニーをライバル視する。"},
{"id":6,"battlerName":"Actor2_6","characterIndex":5,"characterName":"Actor2","classId":6,"equips":[44,0,32,0,57],"faceIndex":5,"faceName":"Actor2","traits":[{"code":53,"dataId":5,"value":1}],"initialLevel":10,"maxLevel":99,"name":"エレン","nickname":"","note":"<srpgReactionSkill:1>\n<srpgActorCommandList:skill,original,item,equip,wait>\n<srpgActorCommandOriginalId:47>","profile":"魔導書を使い分けることで様々な魔術を扱える魔導院の英才。\n妖艶な大人の女性を演じるが、実は恋に恋する乙女な人。"},
{"id":7,"battlerName":"Actor2_4","characterIndex":3,"characterName":"Actor2","classId":7,"equips":[52,0,16,40,58],"faceIndex":3,"faceName":"Actor2","traits":[{"code":53,"dataId":5,"value":1}],"initialLevel":10,"maxLevel":99,"name":"アナスタシア","nickname":"","note":"<srpgReactionSkill:1>","profile":"短剣を武器に戦う、旅の踊り子。味方の支援に特化する。\n様々な踊りによって、周囲の味方の能力を引き上げる。"},
{"id":8,"battlerName":"Actor3_7","characterIndex":6,"characterName":"Actor3","classId":8,"equips":[60,0,16,0,59],"faceIndex":6,"faceName":"Actor3","traits":[{"code":53,"dataId":5,"value":1}],"initialLevel":10,"maxLevel":99,"name":"ルーファス","nickname":"","note":"<srpgReactionSkill:1>\n<srpgActorCommandList:skill,original,item,equip,wait>\n","profile":"魔銃と呼ばれる新武器を扱う工学士。特殊な攻撃が得意。\n人付き合いが苦手だが、戦いとなれば天才的な腕を発揮する。"},
{"id":9,"battlerName":"Actor1_1","characterIndex":0,"characterName":"Actor1","classId":9,"equips":[68,19,27,44,0],"faceIndex":0,"faceName":"Actor1","traits":[{"code":62,"dataId":0,"value":1},{"code":53,"dataId":1,"value":1},{"code":53,"dataId":2,"value":1},{"code":53,"dataId":3,"value":1},{"code":53,"dataId":4,"value":1},{"code":53,"dataId":5,"value":1}],"initialLevel":1,"maxLevel":99,"name":"Harold","nickname":"","note":"<srpgReactionSkill:1>","profile":"数多くの物語に登場する英雄。\n３ターンの間、自動行動で戦ってくれる。"},
{"id":10,"battlerName":"","characterIndex":0,"characterName":"","classId":1,"equips":[0,0,0,0,0],"faceIndex":0,"faceName":"","traits":[],"initialLevel":1,"maxLevel":99,"name":"---new--","nickname":"","note":"","profile":""},
{"id":11,"battlerName":"MyChar001","characterIndex":0,"characterName":"MyChar","classId":9,"equips":[68,19,27,44,0],"faceIndex":0,"faceName":"MyFace01","traits":[{"code":62,"dataId":0,"value":1},{"code":53,"dataId":1,"value":1},{"code":53,"dataId":2,"value":1},{"code":53,"dataId":3,"value":1},{"code":53,"dataId":4,"value":1},{"code":53,"dataId":5,"value":1}],"initialLevel":1,"maxLevel":99,"name":"Unknown Hero","nickname":"","note":"<srpgReactionSkill:1>","profile":"Demo Character to test New Map"},
{"id":12,"battlerName":"Actor3_7","characterIndex":6,"characterName":"Actor3","classId":8,"equips":[60,0,16,0,59],"faceIndex":6,"faceName":"Actor3","traits":[{"code":53,"dataId":5,"value":1}],"initialLevel":10,"maxLevel":99,"name":"Lupus","nickname":"","note":"<srpgReactionSkill:1>\n<srpgActorCommandList:skill,original,item,equip,wait>\n","profile":"An engineer who uses a new weapon called a magic gun. \nGood at special attacks."},
{"id":13,"battlerName":"Actor2_4","characterIndex":3,"characterName":"Actor2","classId":7,"equips":[52,0,16,40,58],"faceIndex":3,"faceName":"Actor2","traits":[{"code":53,"dataId":5,"value":1}],"initialLevel":10,"maxLevel":99,"name":"Anne","nickname":"","note":"<srpgReactionSkill:1>","profile":"A traveling dancer who fights with a dagger. \n"},
{"id":14,"battlerName":"","characterIndex":0,"characterName":"","classId":1,"equips":[0,0,0,0,0],"faceIndex":0,"faceName":"","traits":[],"initialLevel":1,"maxLevel":99,"name":"","nickname":"","note":"","profile":""},
{"id":15,"battlerName":"","characterIndex":0,"characterName":"","classId":1,"equips":[0,0,0,0,0],"faceIndex":0,"faceName":"","traits":[],"initialLevel":1,"maxLevel":99,"name":"","nickname":"","note":"","profile":""},
{"id":16,"battlerName":"","characterIndex":0,"characterName":"","classId":1,"equips":[0,0,0,0,0],"faceIndex":0,"faceName":"","traits":[],"initialLevel":1,"maxLevel":99,"name":"","nickname":"","note":"","profile":""},
{"id":17,"battlerName":"","characterIndex":0,"characterName":"","classId":1,"equips":[0,0,0,0,0],"faceIndex":0,"faceName":"","traits":[],"initialLevel":1,"maxLevel":99,"name":"","nickname":"","note":"","profile":""},
{"id":18,"battlerName":"","characterIndex":0,"characterName":"","classId":1,"equips":[0,0,0,0,0],"faceIndex":0,"faceName":"","traits":[],"initialLevel":1,"maxLevel":99,"name":"","nickname":"","note":"","profile":""},
{"id":19,"battlerName":"","characterIndex":0,"characterName":"","classId":1,"equips":[0,0,0,0,0],"faceIndex":0,"faceName":"","traits":[],"initialLevel":1,"maxLevel":99,"name":"","nickname":"","note":"","profile":""},
{"id":20,"battlerName":"","characterIndex":0,"characterName":"","classId":1,"equips":[0,0,0,0,0],"faceIndex":0,"faceName":"","traits":[],"initialLevel":1,"maxLevel":99,"name":"","nickname":"","note":"","profile":""}
]