[
null,
{"id":1,"list":[{"code":108,"indent":0,"parameters":["スキルで呼び出されることを想定"]},{"code":408,"indent":0,"parameters":["対象の行動済みを解除し、再行動できるようにする。"]},{"code":355,"indent":0,"parameters":["this.unitReaction(this.v(5));"]},{"code":108,"indent":0,"parameters":["Expectedto be called by a skill"]},{"code":408,"indent":0,"parameters":["Cancels the target's completed action and allows it to act again."]},{"code":0,"indent":0,"parameters":[]}],"name":"Reaction Skill","switchId":1,"trigger":0},
{"id":2,"list":[{"code":108,"indent":0,"parameters":["スキルで呼び出されることを想定"]},{"code":408,"indent":0,"parameters":["対象を行動済みにする。"]},{"code":408,"indent":0,"parameters":["エネミーが使用しても、"]},{"code":408,"indent":0,"parameters":["直後にターン終了によって行動済みフラグが解除されるため、"]},{"code":408,"indent":0,"parameters":["アクターが使用しないと意味が無い。"]},{"code":108,"indent":0,"parameters":["ターン開始時のイベントなどで、"]},{"code":408,"indent":0,"parameters":["イベント上の演出として、キャラクターを行動不能にするような"]},{"code":408,"indent":0,"parameters":["使い方が考えられる。"]},{"code":355,"indent":0,"parameters":["this.unitTurnEnd(this.v(5));"]},{"code":108,"indent":0,"parameters":["Expected to be called by a skill"]},{"code":408,"indent":0,"parameters":["Makes the target acted."]},{"code":408,"indent":0,"parameters":["Even if the enemy uses"]},{"code":408,"indent":0,"parameters":["Immediately after the turn ends, the action completed flag is canceled,"]},{"code":408,"indent":0,"parameters":["Doesn't matter if the actor doesn't use it."]},{"code":108,"indent":0,"parameters":["Events at the start of the turn, etc."]},{"code":408,"indent":0,"parameters":["As a production on the event, such as making the character incapable of action"]},{"code":408,"indent":0,"parameters":["I can think of how to use it."]},{"code":0,"indent":0,"parameters":[]}],"name":"Action End Skill","switchId":1,"trigger":0},
{"id":3,"list":[{"code":250,"indent":0,"parameters":[{"name":"Teleport","volume":90,"pitch":100,"pan":0}]},{"code":224,"indent":0,"parameters":[[255,255,255,170],60,false]},{"code":355,"indent":0,"parameters":["this.activeBattler().teleport();"]},{"code":0,"indent":0,"parameters":[]}],"name":"Teleport","switchId":1,"trigger":0},
{"id":4,"list":[{"code":355,"indent":0,"parameters":["this.summon('actor', 1, 9, this.activeBattler().level, 3, undefined, undefined);"]},{"code":0,"indent":0,"parameters":[]}],"name":"Summon Actor","switchId":1,"trigger":0},
{"id":5,"list":[{"code":355,"indent":0,"parameters":["this.summon('object', 3, undefined, undefined, 3, undefined, undefined);"]},{"code":0,"indent":0,"parameters":[]}],"name":"Summon Object","switchId":1,"trigger":0},
{"id":6,"list":[{"code":0,"indent":0,"parameters":[]}],"name":"--custom here--","switchId":1,"trigger":0},
{"id":7,"list":[{"code":314,"indent":0,"parameters":[0,0]},{"code":312,"indent":0,"parameters":[0,0,1,0,9999]},{"code":355,"indent":0,"parameters":["$gameMap.events().forEach(function(event) {"]},{"code":655,"indent":0,"parameters":["  var eventId=event.eventId();"]},{"code":655,"indent":0,"parameters":["  var battlerArray = $gameSystem.EventToUnit(eventId);"]},{"code":655,"indent":0,"parameters":["//----------------"]},{"code":655,"indent":0,"parameters":["  if (battlerArray && (battlerArray[0] === 'actor' || battlerArray[0] === 'enemy')) {"]},{"code":655,"indent":0,"parameters":["    var mpUnit = battlerArray[1].mp; //console.log( mpUnit);"]},{"code":655,"indent":0,"parameters":["    if (battlerArray[1].isAlive()) battlerArray[1].gainMp( -mpUnit);"]},{"code":655,"indent":0,"parameters":["  }"]},{"code":655,"indent":0,"parameters":["//----------------"]},{"code":655,"indent":0,"parameters":["});"]},{"code":0,"indent":0,"parameters":[]}],"name":"mp is 0","switchId":1,"trigger":0},
{"id":8,"list":[{"code":0,"indent":0,"parameters":[]}],"name":"","switchId":1,"trigger":0},
{"id":9,"list":[{"code":0,"indent":0,"parameters":[]}],"name":"","switchId":1,"trigger":0},
{"id":10,"list":[{"code":0,"indent":0,"parameters":[]}],"name":"","switchId":1,"trigger":0}
]