{
"autoplayBgm":false,"autoplayBgs":false,"battleback1Name":"","battleback2Name":"","bgm":{"name":"","pan":0,"pitch":100,"volume":90},"bgs":{"name":"","pan":0,"pitch":100,"volume":90},"disableDashing":false,"displayName":"","encounterList":[],"encounterStep":30,"height":13,"note":"","parallaxLoopX":false,"parallaxLoopY":false,"parallaxName":"","parallaxShow":true,"parallaxSx":0,"parallaxSy":0,"scrollType":0,"specifyBattleback":false,"tilesetId":2,"width":20,
"data":[1641,1642,1649,1650,1657,1658,2832,2816,2816,2816,2816,2816,2816,2816,2816,2816,2816,2816,2816,2816,1649,1650,1657,1658,2850,2836,2817,2816,2816,2816,2816,2816,2816,2816,2816,2816,2816,2816,2816,2816,1657,1658,2850,2836,2817,2816,2816,2816,2816,2816,2816,2816,2816,2816,2816,2816,2816,2816,2816,2816,2836,2836,2817,2816,2816,2816,2816,2816,2816,2816,2816,2816,2816,2816,2816,2816,2816,2816,2816,2816,2844,2844,2844,2844,2844,2844,2844,2844,2824,2820,2844,2844,2844,2824,2820,2844,2844,2844,2844,2844,2932,2932,2932,2932,2932,2932,2932,2948,2856,2854,2946,2932,2948,2856,2854,2946,2932,2932,2932,2932,2940,2920,2912,2912,2912,2912,2912,2914,2932,2932,2913,2912,2914,2932,2932,2913,2912,2912,2912,2912,2852,2952,2940,2940,2940,2940,2940,2940,2940,2940,2940,2940,2940,2940,2940,2940,2940,2940,2940,2940,2818,2836,2852,2907,2909,2859,2838,2836,2836,2836,2836,2836,2836,2836,2837,2849,2849,2849,2849,2849,2816,2816,2822,2849,2861,2910,2856,2844,2824,2820,2844,2844,2844,2844,2854,1644,1641,1641,1641,1641,2816,2820,2854,1644,1641,1641,1641,1643,2856,2854,1644,1641,1641,1641,1641,1642,1649,1649,1649,1649,2820,2854,1641,1642,1649,1649,1649,1640,1641,1641,1642,1649,1649,1649,1649,1650,1649,1649,1657,1657,2840,1634,1649,1650,1657,1657,1657,1648,1649,1649,1650,1657,1657,1657,1657,1658,1657,1657,1640,1641,0,0,0,0,0,0,0,0,0,0,0,0,0,0,0,0,0,0,0,3048,0,0,0,0,0,0,0,0,0,0,0,0,0,0,0,0,0,0,0,0,0,0,0,0,0,0,0,0,0,0,0,0,0,0,0,0,0,0,0,0,0,0,0,0,0,0,0,0,0,0,0,0,0,0,0,0,3051,3045,0,3051,3137,3137,3137,3137,3149,0,0,0,0,0,0,0,0,0,3051,3053,0,3049,3053,0,0,0,0,0,0,0,0,0,0,0,0,0,0,0,0,0,0,0,0,0,0,0,0,0,0,0,0,0,0,0,0,0,0,0,0,0,0,0,0,0,0,0,0,0,0,0,0,0,0,0,0,0,0,0,0,0,0,0,0,0,0,0,0,0,0,0,3054,0,0,0,0,0,3051,3041,3030,3044,3147,3137,3137,3137,0,0,0,0,0,0,0,0,0,0,0,0,0,0,3048,3046,0,0,0,0,0,0,0,0,0,0,0,0,0,0,0,0,0,3054,0,0,0,0,0,0,0,0,0,0,0,0,0,0,0,0,0,0,0,0,0,0,0,0,0,0,0,0,0,0,0,0,0,0,0,0,0,0,0,0,0,0,0,0,0,0,0,0,0,0,0,0,0,0,0,0,0,0,121,0,0,0,0,0,0,0,0,0,0,0,0,0,0,0,0,0,0,0,0,0,0,0,120,0,0,0,0,0,120,0,0,0,0,0,0,0,0,0,0,0,0,0,0,0,0,0,0,0,0,0,0,0,0,0,0,0,0,0,0,0,0,0,0,0,0,0,0,0,0,0,0,0,0,0,0,0,0,0,0,0,0,0,0,0,0,0,0,0,0,0,0,0,0,0,0,0,0,0,0,0,0,0,0,0,0,0,0,0,0,0,0,0,0,0,0,0,0,0,0,0,0,0,0,0,0,0,0,0,0,0,0,0,0,0,0,0,0,0,0,0,0,0,0,0,0,0,0,0,0,0,0,0,0,0,0,0,0,0,0,0,0,0,0,0,0,0,0,0,0,0,0,0,0,0,0,0,0,0,0,0,0,0,0,0,0,0,0,121,0,0,0,0,0,0,0,0,0,0,0,0,0,0,0,0,0,0,0,0,0,0,0,0,0,0,0,0,0,0,0,0,0,0,0,0,0,0,0,0,0,0,0,0,0,0,0,0,0,0,0,0,0,0,0,0,0,0,0,0,0,0,0,0,97,112,113,0,0,120,112,113,89,0,112,113,0,0,0,0,112,113,0,90,0,120,121,0,0,0,120,121,0,112,113,121,112,113,0,112,113,121,96,0,0,107,0,0,112,113,96,0,259,120,121,0,120,121,0,120,121,90,0,112,113,0,0,0,120,121,0,0,267,96,0,0,0,0,0,0,0,194,0,120,121,0,0,91,0,73,0,97,0,0,0,0,0,0,0,0,0,0,0,0,0,0,0,0,0,0,0,0,0,0,0,0,0,0,0,0,0,0,0,0,0,0,0,0,0,0,0,0,0,0,0,0,0,0,0,0,0,0,0,0,0,0,0,0,0,0,0,0,0,0,0,0,0,0,0,0,99,0,259,0,0,0,0,97,0,0,0,0,0,0,0,192,0,0,112,113,0,0,267,0,100,0,112,113,0,90,0,0,0,0,0,0,99,0,120,112,113,91,0,0,0,0,120,121,89,0,0,0,0,0,0,0,0,0,0,120,121,0,0,192,0,0,0,0,0,0,0,0,0,0,0,0,0,0,0,0,0,0,0,200,0,0,0,196,0,0,192,0,0,0,0,0,0,96,0,0,0,0,0,0,0,0,0,0,0,0,0,0,0,0,0,0,0,0,0,0,0,0,0,0,0,0,0,0,0,0,0,0,0,0,0,0,0,0,0,0,0,0,0,0,0,0,0,0,0,0,0,0,0,0,0,0,0,0,0,0,0,0,0,0,0,0,0,0,0,0,0,0,0,0,0,0,0,0,0,0,0,0,0,0,0,0,0,0,0,0,0,0,0,0,0,0,0,0,0,0,0,0,0,0,0,0,0,0,0,0,0,0,0,0,0,0,0,0,0,0,0,0,0,0,0,0,0,0,0,0,0,0,0,0,0,0,0,0,0,0,0,0,0,0,0,0,0,0,0,0,0,0,0,0,0,0,0,0,0,0,0,0,0,0,0,0,0,0,0,0,0,0,0,0,0,0,0,0,0,0,0,0,0,0,0,0,0,0,0,0,0,0,0,0,0,0,0,0,0,0,0,0,0,0,0,0,0,0,0,0,0,0,0,0,0,0,0,0,0,0,0,0,0,0,0,0,0,0,0,0,0,0,0,0,0,0,0,0,0,0,0,0,0,0,0,0,0,0,0,0,0,0,0,0,0,0,0,0,0,0,0,0,0,0,0,0,0,0,0,0,0,0,0,0,0,0,0,0,0,0,0,0,0,0,0,0,0,0,0,0,0,0,0,0,0,0,0,0,0,0,0,0,0,0,0,0,0,0,0,0,0,0,0,0,0,0,0,0,0,0,0,0,0,0,0,0,0,0,0,0,0,0,0,0,0,0,0,0,0,0,0,0,0,0,0,0,0,0,0,0,0,0,0,0,0,0,0,0,0,0,0,0,0,0,0,0,0,0,0,0,0,0,0,0,0,0,0,0,0,0,0,0,0,0,0,0,0,0,0,0,0,0,0,0,0,0,0,0,0,0,0,0,0,0,0,0,0,0,0,0,0,0,0,0,0,0,0,0,0,0,0,0,0,0,0,0,0,0,0,0,0,0,0,0,0,0,0,0,0,0,0,0,0,0,0,0,0,0,0,0,0,0,0,0,0,0,0,0,0,0,0,0,0,0,0,0,0,0,0,0,0,0,0,0,0,0,0,0,0,0,0,0,0,0,0,0,0,0,0,0,0,0,0,0,0,0,0,0,0,0,0,0,0,0,0,0,0,0,0,0,0,0,0,0,0,0,0,0],
"events":[
null,
{"id":1,"name":"シドニー","note":"","pages":[{"conditions":{"actorId":1,"actorValid":false,"itemId":1,"itemValid":false,"selfSwitchCh":"A","selfSwitchValid":false,"switch1Id":1,"switch1Valid":false,"switch2Id":1,"switch2Valid":false,"variableId":1,"variableValid":false,"variableValue":0},"directionFix":false,"image":{"tileId":0,"characterName":"Actor1","direction":6,"pattern":1,"characterIndex":4},"list":[{"code":0,"indent":0,"parameters":[]}],"moveFrequency":3,"moveRoute":{"list":[{"code":0,"parameters":[]}],"repeat":true,"skippable":false,"wait":false},"moveSpeed":4,"moveType":0,"priorityType":1,"stepAnime":false,"through":false,"trigger":0,"walkAnime":true}],"x":10,"y":6},
{"id":2,"name":"レイチェル","note":"","pages":[{"conditions":{"actorId":1,"actorValid":false,"itemId":1,"itemValid":false,"selfSwitchCh":"A","selfSwitchValid":false,"switch1Id":1,"switch1Valid":false,"switch2Id":1,"switch2Valid":false,"variableId":1,"variableValid":false,"variableValue":0},"directionFix":false,"image":{"tileId":0,"characterName":"Actor1","direction":6,"pattern":1,"characterIndex":1},"list":[{"code":0,"indent":0,"parameters":[]}],"moveFrequency":3,"moveRoute":{"list":[{"code":0,"parameters":[]}],"repeat":true,"skippable":false,"wait":false},"moveSpeed":5,"moveType":0,"priorityType":1,"stepAnime":false,"through":false,"trigger":0,"walkAnime":true}],"x":2,"y":6},
{"id":3,"name":"パトリック","note":"","pages":[{"conditions":{"actorId":1,"actorValid":false,"itemId":1,"itemValid":false,"selfSwitchCh":"A","selfSwitchValid":false,"switch1Id":1,"switch1Valid":false,"switch2Id":1,"switch2Valid":false,"variableId":1,"variableValid":false,"variableValue":0},"directionFix":false,"image":{"tileId":0,"characterName":"Actor1","direction":6,"pattern":1,"characterIndex":6},"list":[{"code":0,"indent":0,"parameters":[]}],"moveFrequency":3,"moveRoute":{"list":[{"code":0,"parameters":[]}],"repeat":true,"skippable":false,"wait":false},"moveSpeed":4,"moveType":0,"priorityType":1,"stepAnime":false,"through":false,"trigger":0,"walkAnime":true}],"x":1,"y":7},
{"id":4,"name":"グレイス","note":"","pages":[{"conditions":{"actorId":1,"actorValid":false,"itemId":1,"itemValid":false,"selfSwitchCh":"A","selfSwitchValid":false,"switch1Id":1,"switch1Valid":false,"switch2Id":1,"switch2Valid":false,"variableId":1,"variableValid":false,"variableValue":0},"directionFix":false,"image":{"tileId":0,"characterName":"Actor2","direction":6,"pattern":1,"characterIndex":7},"list":[{"code":0,"indent":0,"parameters":[]}],"moveFrequency":3,"moveRoute":{"list":[{"code":0,"parameters":[]}],"repeat":true,"skippable":false,"wait":false},"moveSpeed":4,"moveType":0,"priorityType":1,"stepAnime":false,"through":false,"trigger":0,"walkAnime":true}],"x":1,"y":6},
{"id":5,"name":"ギルバート","note":"","pages":[{"conditions":{"actorId":1,"actorValid":false,"itemId":1,"itemValid":false,"selfSwitchCh":"A","selfSwitchValid":false,"switch1Id":1,"switch1Valid":false,"switch2Id":1,"switch2Valid":false,"variableId":1,"variableValid":false,"variableValue":0},"directionFix":false,"image":{"tileId":0,"characterName":"Actor1","direction":6,"pattern":1,"characterIndex":2},"list":[{"code":0,"indent":0,"parameters":[]}],"moveFrequency":3,"moveRoute":{"list":[{"code":0,"parameters":[]}],"repeat":true,"skippable":false,"wait":false},"moveSpeed":5,"moveType":0,"priorityType":1,"stepAnime":false,"through":false,"trigger":0,"walkAnime":true}],"x":1,"y":8},
{"id":6,"name":"エレン","note":"","pages":[{"conditions":{"actorId":1,"actorValid":false,"itemId":1,"itemValid":false,"selfSwitchCh":"A","selfSwitchValid":false,"switch1Id":1,"switch1Valid":false,"switch2Id":1,"switch2Valid":false,"variableId":1,"variableValid":false,"variableValue":0},"directionFix":false,"image":{"tileId":0,"characterName":"Actor2","direction":6,"pattern":1,"characterIndex":5},"list":[{"code":0,"indent":0,"parameters":[]}],"moveFrequency":3,"moveRoute":{"list":[{"code":0,"parameters":[]}],"repeat":true,"skippable":false,"wait":false},"moveSpeed":4,"moveType":0,"priorityType":1,"stepAnime":false,"through":false,"trigger":0,"walkAnime":true}],"x":0,"y":5},
{"id":7,"name":"アナスタシア","note":"","pages":[{"conditions":{"actorId":1,"actorValid":false,"itemId":1,"itemValid":false,"selfSwitchCh":"A","selfSwitchValid":false,"switch1Id":1,"switch1Valid":false,"switch2Id":1,"switch2Valid":false,"variableId":1,"variableValid":false,"variableValue":0},"directionFix":false,"image":{"tileId":0,"characterName":"Actor2","direction":6,"pattern":1,"characterIndex":3},"list":[{"code":0,"indent":0,"parameters":[]}],"moveFrequency":3,"moveRoute":{"list":[{"code":0,"parameters":[]}],"repeat":true,"skippable":false,"wait":false},"moveSpeed":4,"moveType":0,"priorityType":1,"stepAnime":false,"through":false,"trigger":0,"walkAnime":true}],"x":0,"y":7},
{"id":8,"name":"ルーファス","note":"","pages":[{"conditions":{"actorId":1,"actorValid":false,"itemId":1,"itemValid":false,"selfSwitchCh":"A","selfSwitchValid":false,"switch1Id":1,"switch1Valid":false,"switch2Id":1,"switch2Valid":false,"variableId":1,"variableValid":false,"variableValue":0},"directionFix":false,"image":{"tileId":0,"characterName":"Actor3","direction":6,"pattern":1,"characterIndex":6},"list":[{"code":0,"indent":0,"parameters":[]}],"moveFrequency":3,"moveRoute":{"list":[{"code":0,"parameters":[]}],"repeat":true,"skippable":false,"wait":false},"moveSpeed":4,"moveType":0,"priorityType":1,"stepAnime":false,"through":false,"trigger":0,"walkAnime":true}],"x":1,"y":5},
{"id":9,"name":"EV009","note":"","pages":[{"conditions":{"actorId":1,"actorValid":false,"itemId":1,"itemValid":false,"selfSwitchCh":"A","selfSwitchValid":false,"switch1Id":1,"switch1Valid":false,"switch2Id":1,"switch2Valid":false,"variableId":1,"variableValid":false,"variableValue":0},"directionFix":false,"image":{"characterIndex":0,"characterName":"","direction":2,"pattern":0,"tileId":0},"list":[{"code":223,"indent":0,"parameters":[[0,0,0,0],60,false]},{"code":205,"indent":0,"parameters":[1,{"list":[{"code":3,"indent":null},{"code":3,"indent":null},{"code":3,"indent":null},{"code":3,"indent":null},{"code":0}],"repeat":false,"skippable":false,"wait":true}]},{"code":505,"indent":0,"parameters":[{"code":3,"indent":null}]},{"code":505,"indent":0,"parameters":[{"code":3,"indent":null}]},{"code":505,"indent":0,"parameters":[{"code":3,"indent":null}]},{"code":505,"indent":0,"parameters":[{"code":3,"indent":null}]},{"code":213,"indent":0,"parameters":[1,1,false]},{"code":101,"indent":0,"parameters":["",0,0,2]},{"code":401,"indent":0,"parameters":["声"]},{"code":401,"indent":0,"parameters":["「待ってーーーーっ！」"]},{"code":205,"indent":0,"parameters":[1,{"list":[{"code":17,"indent":null},{"code":0}],"repeat":false,"skippable":false,"wait":true}]},{"code":505,"indent":0,"parameters":[{"code":17,"indent":null}]},{"code":205,"indent":0,"parameters":[2,{"list":[{"code":3,"indent":null},{"code":3,"indent":null},{"code":3,"indent":null},{"code":3,"indent":null},{"code":3,"indent":null},{"code":3,"indent":null},{"code":3,"indent":null},{"code":3,"indent":null},{"code":3,"indent":null},{"code":3,"indent":null},{"code":0}],"repeat":false,"skippable":false,"wait":true}]},{"code":505,"indent":0,"parameters":[{"code":3,"indent":null}]},{"code":505,"indent":0,"parameters":[{"code":3,"indent":null}]},{"code":505,"indent":0,"parameters":[{"code":3,"indent":null}]},{"code":505,"indent":0,"parameters":[{"code":3,"indent":null}]},{"code":505,"indent":0,"parameters":[{"code":3,"indent":null}]},{"code":505,"indent":0,"parameters":[{"code":3,"indent":null}]},{"code":505,"indent":0,"parameters":[{"code":3,"indent":null}]},{"code":505,"indent":0,"parameters":[{"code":3,"indent":null}]},{"code":505,"indent":0,"parameters":[{"code":3,"indent":null}]},{"code":505,"indent":0,"parameters":[{"code":3,"indent":null}]},{"code":101,"indent":0,"parameters":["Actor1",1,0,2]},{"code":401,"indent":0,"parameters":["レイチェル"]},{"code":401,"indent":0,"parameters":["「はぁっ、はぁっ……"]},{"code":401,"indent":0,"parameters":["　やっと追いついた……」"]},{"code":205,"indent":0,"parameters":[2,{"list":[{"code":44,"parameters":[{"name":"Jump2","volume":90,"pitch":100,"pan":0}],"indent":null},{"code":14,"parameters":[0,0],"indent":null},{"code":0}],"repeat":false,"skippable":false,"wait":false}]},{"code":505,"indent":0,"parameters":[{"code":44,"parameters":[{"name":"Jump2","volume":90,"pitch":100,"pan":0}],"indent":null}]},{"code":505,"indent":0,"parameters":[{"code":14,"parameters":[0,0],"indent":null}]},{"code":101,"indent":0,"parameters":["Actor1",1,0,2]},{"code":401,"indent":0,"parameters":["レイチェル"]},{"code":401,"indent":0,"parameters":["「もう！　ひどいよ、シドニー！"]},{"code":401,"indent":0,"parameters":["　勝手に出発しちゃうなんて！」"]},{"code":213,"indent":0,"parameters":[1,2,true]},{"code":101,"indent":0,"parameters":["Actor1",1,0,2]},{"code":401,"indent":0,"parameters":["レイチェル"]},{"code":401,"indent":0,"parameters":["「一緒に戦った仲間でしょ？"]},{"code":401,"indent":0,"parameters":["　置いていくなんて、ひどいじゃない」"]},{"code":213,"indent":0,"parameters":[2,3,false]},{"code":205,"indent":0,"parameters":[2,{"list":[{"code":20,"indent":null},{"code":15,"parameters":[6],"indent":null},{"code":20,"indent":null},{"code":15,"parameters":[6],"indent":null},{"code":20,"indent":null},{"code":15,"parameters":[6],"indent":null},{"code":20,"indent":null},{"code":0}],"repeat":false,"skippable":false,"wait":false}]},{"code":505,"indent":0,"parameters":[{"code":20,"indent":null}]},{"code":505,"indent":0,"parameters":[{"code":15,"parameters":[6],"indent":null}]},{"code":505,"indent":0,"parameters":[{"code":20,"indent":null}]},{"code":505,"indent":0,"parameters":[{"code":15,"parameters":[6],"indent":null}]},{"code":505,"indent":0,"parameters":[{"code":20,"indent":null}]},{"code":505,"indent":0,"parameters":[{"code":15,"parameters":[6],"indent":null}]},{"code":505,"indent":0,"parameters":[{"code":20,"indent":null}]},{"code":101,"indent":0,"parameters":["Actor1",1,0,2]},{"code":401,"indent":0,"parameters":["レイチェル"]},{"code":401,"indent":0,"parameters":["「あなたといると、なんだか楽しいの。"]},{"code":401,"indent":0,"parameters":["　アタシも修行の旅を続けるし、"]},{"code":401,"indent":0,"parameters":["　一緒に行きましょう！」"]},{"code":230,"indent":0,"parameters":[60]},{"code":101,"indent":0,"parameters":["",0,0,2]},{"code":401,"indent":0,"parameters":["声"]},{"code":401,"indent":0,"parameters":["「――私たちもいるぞ」"]},{"code":205,"indent":0,"parameters":[2,{"list":[{"code":17,"indent":null},{"code":0}],"repeat":false,"skippable":false,"wait":false}]},{"code":505,"indent":0,"parameters":[{"code":17,"indent":null}]},{"code":205,"indent":0,"parameters":[3,{"list":[{"code":3,"indent":null},{"code":3,"indent":null},{"code":3,"indent":null},{"code":3,"indent":null},{"code":3,"indent":null},{"code":3,"indent":null},{"code":3,"indent":null},{"code":3,"indent":null},{"code":3,"indent":null},{"code":0}],"repeat":false,"skippable":false,"wait":false}]},{"code":505,"indent":0,"parameters":[{"code":3,"indent":null}]},{"code":505,"indent":0,"parameters":[{"code":3,"indent":null}]},{"code":505,"indent":0,"parameters":[{"code":3,"indent":null}]},{"code":505,"indent":0,"parameters":[{"code":3,"indent":null}]},{"code":505,"indent":0,"parameters":[{"code":3,"indent":null}]},{"code":505,"indent":0,"parameters":[{"code":3,"indent":null}]},{"code":505,"indent":0,"parameters":[{"code":3,"indent":null}]},{"code":505,"indent":0,"parameters":[{"code":3,"indent":null}]},{"code":505,"indent":0,"parameters":[{"code":3,"indent":null}]},{"code":205,"indent":0,"parameters":[4,{"list":[{"code":3,"indent":null},{"code":3,"indent":null},{"code":3,"indent":null},{"code":3,"indent":null},{"code":3,"indent":null},{"code":3,"indent":null},{"code":3,"indent":null},{"code":3,"indent":null},{"code":3,"indent":null},{"code":0}],"repeat":false,"skippable":false,"wait":false}]},{"code":505,"indent":0,"parameters":[{"code":3,"indent":null}]},{"code":505,"indent":0,"parameters":[{"code":3,"indent":null}]},{"code":505,"indent":0,"parameters":[{"code":3,"indent":null}]},{"code":505,"indent":0,"parameters":[{"code":3,"indent":null}]},{"code":505,"indent":0,"parameters":[{"code":3,"indent":null}]},{"code":505,"indent":0,"parameters":[{"code":3,"indent":null}]},{"code":505,"indent":0,"parameters":[{"code":3,"indent":null}]},{"code":505,"indent":0,"parameters":[{"code":3,"indent":null}]},{"code":505,"indent":0,"parameters":[{"code":3,"indent":null}]},{"code":205,"indent":0,"parameters":[6,{"list":[{"code":3,"indent":null},{"code":3,"indent":null},{"code":3,"indent":null},{"code":3,"indent":null},{"code":3,"indent":null},{"code":3,"indent":null},{"code":3,"indent":null},{"code":3,"indent":null},{"code":3,"indent":null},{"code":0}],"repeat":false,"skippable":false,"wait":false}]},{"code":505,"indent":0,"parameters":[{"code":3,"indent":null}]},{"code":505,"indent":0,"parameters":[{"code":3,"indent":null}]},{"code":505,"indent":0,"parameters":[{"code":3,"indent":null}]},{"code":505,"indent":0,"parameters":[{"code":3,"indent":null}]},{"code":505,"indent":0,"parameters":[{"code":3,"indent":null}]},{"code":505,"indent":0,"parameters":[{"code":3,"indent":null}]},{"code":505,"indent":0,"parameters":[{"code":3,"indent":null}]},{"code":505,"indent":0,"parameters":[{"code":3,"indent":null}]},{"code":505,"indent":0,"parameters":[{"code":3,"indent":null}]},{"code":205,"indent":0,"parameters":[7,{"list":[{"code":3,"indent":null},{"code":3,"indent":null},{"code":3,"indent":null},{"code":3,"indent":null},{"code":3,"indent":null},{"code":3,"indent":null},{"code":3,"indent":null},{"code":3,"indent":null},{"code":3,"indent":null},{"code":0}],"repeat":false,"skippable":false,"wait":false}]},{"code":505,"indent":0,"parameters":[{"code":3,"indent":null}]},{"code":505,"indent":0,"parameters":[{"code":3,"indent":null}]},{"code":505,"indent":0,"parameters":[{"code":3,"indent":null}]},{"code":505,"indent":0,"parameters":[{"code":3,"indent":null}]},{"code":505,"indent":0,"parameters":[{"code":3,"indent":null}]},{"code":505,"indent":0,"parameters":[{"code":3,"indent":null}]},{"code":505,"indent":0,"parameters":[{"code":3,"indent":null}]},{"code":505,"indent":0,"parameters":[{"code":3,"indent":null}]},{"code":505,"indent":0,"parameters":[{"code":3,"indent":null}]},{"code":205,"indent":0,"parameters":[8,{"list":[{"code":3,"indent":null},{"code":3,"indent":null},{"code":3,"indent":null},{"code":3,"indent":null},{"code":3,"indent":null},{"code":3,"indent":null},{"code":3,"indent":null},{"code":3,"indent":null},{"code":3,"indent":null},{"code":0}],"repeat":false,"skippable":false,"wait":false}]},{"code":505,"indent":0,"parameters":[{"code":3,"indent":null}]},{"code":505,"indent":0,"parameters":[{"code":3,"indent":null}]},{"code":505,"indent":0,"parameters":[{"code":3,"indent":null}]},{"code":505,"indent":0,"parameters":[{"code":3,"indent":null}]},{"code":505,"indent":0,"parameters":[{"code":3,"indent":null}]},{"code":505,"indent":0,"parameters":[{"code":3,"indent":null}]},{"code":505,"indent":0,"parameters":[{"code":3,"indent":null}]},{"code":505,"indent":0,"parameters":[{"code":3,"indent":null}]},{"code":505,"indent":0,"parameters":[{"code":3,"indent":null}]},{"code":205,"indent":0,"parameters":[5,{"list":[{"code":3,"indent":null},{"code":3,"indent":null},{"code":3,"indent":null},{"code":3,"indent":null},{"code":3,"indent":null},{"code":3,"indent":null},{"code":3,"indent":null},{"code":3,"indent":null},{"code":3,"indent":null},{"code":0}],"repeat":false,"skippable":false,"wait":true}]},{"code":505,"indent":0,"parameters":[{"code":3,"indent":null}]},{"code":505,"indent":0,"parameters":[{"code":3,"indent":null}]},{"code":505,"indent":0,"parameters":[{"code":3,"indent":null}]},{"code":505,"indent":0,"parameters":[{"code":3,"indent":null}]},{"code":505,"indent":0,"parameters":[{"code":3,"indent":null}]},{"code":505,"indent":0,"parameters":[{"code":3,"indent":null}]},{"code":505,"indent":0,"parameters":[{"code":3,"indent":null}]},{"code":505,"indent":0,"parameters":[{"code":3,"indent":null}]},{"code":505,"indent":0,"parameters":[{"code":3,"indent":null}]},{"code":205,"indent":0,"parameters":[5,{"list":[{"code":44,"parameters":[{"name":"Jump2","volume":90,"pitch":100,"pan":0}],"indent":null},{"code":14,"parameters":[0,0],"indent":null},{"code":44,"parameters":[{"name":"Jump2","volume":90,"pitch":100,"pan":0}],"indent":null},{"code":14,"parameters":[0,0],"indent":null},{"code":0}],"repeat":false,"skippable":false,"wait":false}]},{"code":505,"indent":0,"parameters":[{"code":44,"parameters":[{"name":"Jump2","volume":90,"pitch":100,"pan":0}],"indent":null}]},{"code":505,"indent":0,"parameters":[{"code":14,"parameters":[0,0],"indent":null}]},{"code":505,"indent":0,"parameters":[{"code":44,"parameters":[{"name":"Jump2","volume":90,"pitch":100,"pan":0}],"indent":null}]},{"code":505,"indent":0,"parameters":[{"code":14,"parameters":[0,0],"indent":null}]},{"code":101,"indent":0,"parameters":["Actor1",2,0,2]},{"code":401,"indent":0,"parameters":["ギルバート"]},{"code":401,"indent":0,"parameters":["「おい、シドニー！"]},{"code":401,"indent":0,"parameters":["　邪神を倒したからって、調子に乗るなよ！"]},{"code":401,"indent":0,"parameters":["　俺様との決着は、ついてねぇんだからな！」"]},{"code":101,"indent":0,"parameters":["Actor2",3,0,2]},{"code":401,"indent":0,"parameters":["アナスタシア"]},{"code":401,"indent":0,"parameters":["「あらあら、まぁまぁ……"]},{"code":401,"indent":0,"parameters":["　決着はともかく、"]},{"code":401,"indent":0,"parameters":["　このままお別れなんて寂しいですわ」"]},{"code":101,"indent":0,"parameters":["Actor2",7,0,2]},{"code":401,"indent":0,"parameters":["グレイス"]},{"code":401,"indent":0,"parameters":["「そうよ。"]},{"code":401,"indent":0,"parameters":["　それに、あなた、まだ一度も"]},{"code":401,"indent":0,"parameters":["　私と飲んでくれてないじゃない」"]},{"code":205,"indent":0,"parameters":[5,{"list":[{"code":19,"indent":null},{"code":0}],"repeat":false,"skippable":false,"wait":false}]},{"code":505,"indent":0,"parameters":[{"code":19,"indent":null}]},{"code":101,"indent":0,"parameters":["Actor1",2,0,2]},{"code":401,"indent":0,"parameters":["ギルバート"]},{"code":401,"indent":0,"parameters":["「いや、グレイスの姉御……"]},{"code":401,"indent":0,"parameters":["　酒は、やめておいたほうが……」"]},{"code":101,"indent":0,"parameters":["Actor1",6,0,2]},{"code":401,"indent":0,"parameters":["パトリック"]},{"code":401,"indent":0,"parameters":["「私たちは、君に惚れたのだ。"]},{"code":401,"indent":0,"parameters":["　ぜひ、一緒に連れて行ってくれたまえ」"]},{"code":101,"indent":0,"parameters":["Actor1",6,0,2]},{"code":401,"indent":0,"parameters":["パトリック"]},{"code":401,"indent":0,"parameters":["「それとも……"]},{"code":401,"indent":0,"parameters":["　私たちはおジャマかな？」"]},{"code":205,"indent":0,"parameters":[5,{"list":[{"code":18,"indent":null},{"code":0}],"repeat":false,"skippable":false,"wait":false}]},{"code":505,"indent":0,"parameters":[{"code":18,"indent":null}]},{"code":205,"indent":0,"parameters":[2,{"list":[{"code":44,"parameters":[{"name":"Jump2","volume":90,"pitch":100,"pan":0}],"indent":null},{"code":14,"parameters":[0,0],"indent":null},{"code":0}],"repeat":false,"skippable":false,"wait":false}]},{"code":505,"indent":0,"parameters":[{"code":44,"parameters":[{"name":"Jump2","volume":90,"pitch":100,"pan":0}],"indent":null}]},{"code":505,"indent":0,"parameters":[{"code":14,"parameters":[0,0],"indent":null}]},{"code":101,"indent":0,"parameters":["Actor1",1,0,2]},{"code":401,"indent":0,"parameters":["レイチェル"]},{"code":401,"indent":0,"parameters":["「べっ、べつに、"]},{"code":401,"indent":0,"parameters":["　そういうつもりじゃないし！」"]},{"code":101,"indent":0,"parameters":["Actor2",5,0,2]},{"code":401,"indent":0,"parameters":["エレン"]},{"code":401,"indent":0,"parameters":["「あら、レイチェル。"]},{"code":401,"indent":0,"parameters":["　抜け駆けはダメよ？」"]},{"code":205,"indent":0,"parameters":[2,{"list":[{"code":44,"parameters":[{"name":"Jump2","volume":90,"pitch":100,"pan":0}],"indent":null},{"code":14,"parameters":[0,0],"indent":null},{"code":0}],"repeat":false,"skippable":false,"wait":false}]},{"code":505,"indent":0,"parameters":[{"code":44,"parameters":[{"name":"Jump2","volume":90,"pitch":100,"pan":0}],"indent":null}]},{"code":505,"indent":0,"parameters":[{"code":14,"parameters":[0,0],"indent":null}]},{"code":101,"indent":0,"parameters":["Actor1",1,0,2]},{"code":401,"indent":0,"parameters":["レイチェル"]},{"code":401,"indent":0,"parameters":["「だから、そういうつもりじゃ……！」"]},{"code":101,"indent":0,"parameters":["Actor3",6,0,2]},{"code":401,"indent":0,"parameters":["ルーファス"]},{"code":401,"indent":0,"parameters":["「…………"]},{"code":401,"indent":0,"parameters":["　でも、この前、シドニーさんに"]},{"code":401,"indent":0,"parameters":["　聞きたいことがあるって……」"]},{"code":205,"indent":0,"parameters":[2,{"list":[{"code":44,"parameters":[{"name":"Jump2","volume":90,"pitch":100,"pan":0}],"indent":0},{"code":14,"parameters":[0,0],"indent":0},{"code":44,"parameters":[{"name":"Jump2","volume":90,"pitch":100,"pan":0}],"indent":null},{"code":14,"parameters":[0,0],"indent":null},{"code":0}],"repeat":false,"skippable":false,"wait":false}]},{"code":505,"indent":0,"parameters":[{"code":44,"parameters":[{"name":"Jump2","volume":90,"pitch":100,"pan":0}],"indent":0}]},{"code":505,"indent":0,"parameters":[{"code":14,"parameters":[0,0],"indent":0}]},{"code":505,"indent":0,"parameters":[{"code":44,"parameters":[{"name":"Jump2","volume":90,"pitch":100,"pan":0}],"indent":null}]},{"code":505,"indent":0,"parameters":[{"code":14,"parameters":[0,0],"indent":null}]},{"code":101,"indent":0,"parameters":["Actor1",1,0,2]},{"code":401,"indent":0,"parameters":["レイチェル"]},{"code":401,"indent":0,"parameters":["「うわーーーー！"]},{"code":401,"indent":0,"parameters":["　ちがう！　ちがうったら！」"]},{"code":213,"indent":0,"parameters":[1,2,true]},{"code":205,"indent":0,"parameters":[2,{"list":[{"code":21,"indent":null},{"code":15,"parameters":[12],"indent":null},{"code":21,"indent":null},{"code":15,"parameters":[12],"indent":null},{"code":0}],"repeat":false,"skippable":false,"wait":true}]},{"code":505,"indent":0,"parameters":[{"code":21,"indent":null}]},{"code":505,"indent":0,"parameters":[{"code":15,"parameters":[12],"indent":null}]},{"code":505,"indent":0,"parameters":[{"code":21,"indent":null}]},{"code":505,"indent":0,"parameters":[{"code":15,"parameters":[12],"indent":null}]},{"code":101,"indent":0,"parameters":["Actor1",1,0,2]},{"code":401,"indent":0,"parameters":["レイチェル"]},{"code":401,"indent":0,"parameters":["「いや、その……"]},{"code":401,"indent":0,"parameters":["　聞きたいことって言うのは……」"]},{"code":101,"indent":0,"parameters":["Actor1",1,0,2]},{"code":401,"indent":0,"parameters":["レイチェル"]},{"code":401,"indent":0,"parameters":["「アタシが……"]},{"code":401,"indent":0,"parameters":["　き、聞きたいのは……！」"]},{"code":230,"indent":0,"parameters":[60]},{"code":205,"indent":0,"parameters":[2,{"list":[{"code":44,"parameters":[{"name":"Jump2","volume":90,"pitch":100,"pan":0}],"indent":null},{"code":14,"parameters":[0,0],"indent":null},{"code":0}],"repeat":false,"skippable":false,"wait":false}]},{"code":505,"indent":0,"parameters":[{"code":44,"parameters":[{"name":"Jump2","volume":90,"pitch":100,"pan":0}],"indent":null}]},{"code":505,"indent":0,"parameters":[{"code":14,"parameters":[0,0],"indent":null}]},{"code":250,"indent":0,"parameters":[{"name":"Explosion2","volume":90,"pitch":100,"pan":0}]},{"code":225,"indent":0,"parameters":[4,6,60,false]},{"code":101,"indent":0,"parameters":["Actor1",1,0,2]},{"code":401,"indent":0,"parameters":["レイチェル"]},{"code":401,"indent":0,"parameters":["「――ニンジャって、"]},{"code":401,"indent":0,"parameters":["　語尾に“ニン”ってつけるって聞いたけど、"]},{"code":401,"indent":0,"parameters":["　本当！？」"]},{"code":230,"indent":0,"parameters":[60]},{"code":213,"indent":0,"parameters":[3,8,false]},{"code":213,"indent":0,"parameters":[4,8,false]},{"code":213,"indent":0,"parameters":[5,8,false]},{"code":213,"indent":0,"parameters":[6,8,false]},{"code":213,"indent":0,"parameters":[7,8,false]},{"code":213,"indent":0,"parameters":[8,8,false]},{"code":213,"indent":0,"parameters":[1,8,true]},{"code":230,"indent":0,"parameters":[60]},{"code":101,"indent":0,"parameters":["Actor1",1,0,2]},{"code":401,"indent":0,"parameters":["レイチェル"]},{"code":401,"indent":0,"parameters":["「あ、あれ？"]},{"code":401,"indent":0,"parameters":["　シドニー……今、笑ったよね？」"]},{"code":213,"indent":0,"parameters":[1,8,true]},{"code":205,"indent":0,"parameters":[2,{"list":[{"code":44,"parameters":[{"name":"Jump2","volume":90,"pitch":100,"pan":0}],"indent":null},{"code":14,"parameters":[0,0],"indent":null},{"code":0}],"repeat":false,"skippable":false,"wait":false}]},{"code":505,"indent":0,"parameters":[{"code":44,"parameters":[{"name":"Jump2","volume":90,"pitch":100,"pan":0}],"indent":null}]},{"code":505,"indent":0,"parameters":[{"code":14,"parameters":[0,0],"indent":null}]},{"code":101,"indent":0,"parameters":["Actor1",1,0,2]},{"code":401,"indent":0,"parameters":["レイチェル"]},{"code":401,"indent":0,"parameters":["「笑った！　ホントに、笑ったって！"]},{"code":401,"indent":0,"parameters":["　ねぇ、みんな！？」"]},{"code":101,"indent":0,"parameters":["Actor1",6,0,2]},{"code":401,"indent":0,"parameters":["パトリック"]},{"code":401,"indent":0,"parameters":["「うむ」"]},{"code":101,"indent":0,"parameters":["Actor2",7,0,2]},{"code":401,"indent":0,"parameters":["グレイス"]},{"code":401,"indent":0,"parameters":["「ふふっ、たしかに、笑っていたわね」"]},{"code":213,"indent":0,"parameters":[6,4,false]},{"code":101,"indent":0,"parameters":["Actor2",5,0,2]},{"code":401,"indent":0,"parameters":["エレン"]},{"code":401,"indent":0,"parameters":["「笑うと、けっこうカワイイじゃない」"]},{"code":205,"indent":0,"parameters":[5,{"list":[{"code":44,"parameters":[{"name":"Jump2","volume":90,"pitch":100,"pan":0}],"indent":null},{"code":14,"parameters":[0,0],"indent":null},{"code":44,"parameters":[{"name":"Jump2","volume":90,"pitch":100,"pan":0}],"indent":null},{"code":14,"parameters":[0,0],"indent":null},{"code":0}],"repeat":false,"skippable":false,"wait":false}]},{"code":505,"indent":0,"parameters":[{"code":44,"parameters":[{"name":"Jump2","volume":90,"pitch":100,"pan":0}],"indent":null}]},{"code":505,"indent":0,"parameters":[{"code":14,"parameters":[0,0],"indent":null}]},{"code":505,"indent":0,"parameters":[{"code":44,"parameters":[{"name":"Jump2","volume":90,"pitch":100,"pan":0}],"indent":null}]},{"code":505,"indent":0,"parameters":[{"code":14,"parameters":[0,0],"indent":null}]},{"code":101,"indent":0,"parameters":["Actor1",2,0,2]},{"code":401,"indent":0,"parameters":["ギルバート"]},{"code":401,"indent":0,"parameters":["「ふん！"]},{"code":401,"indent":0,"parameters":["　俺様だって、"]},{"code":401,"indent":0,"parameters":["　笑顔の可愛さは負けねぇぜ！」"]},{"code":213,"indent":0,"parameters":[1,7,true]},{"code":205,"indent":0,"parameters":[1,{"list":[{"code":3,"indent":0},{"code":0}],"repeat":false,"skippable":false,"wait":true}]},{"code":505,"indent":0,"parameters":[{"code":3,"indent":0}]},{"code":223,"indent":0,"parameters":[[-255,-255,-255,0],60,false]},{"code":205,"indent":0,"parameters":[1,{"list":[{"code":3,"indent":0},{"code":3,"indent":null},{"code":3,"indent":null},{"code":3,"indent":null},{"code":0}],"repeat":false,"skippable":false,"wait":false}]},{"code":505,"indent":0,"parameters":[{"code":3,"indent":0}]},{"code":505,"indent":0,"parameters":[{"code":3,"indent":null}]},{"code":505,"indent":0,"parameters":[{"code":3,"indent":null}]},{"code":505,"indent":0,"parameters":[{"code":3,"indent":null}]},{"code":205,"indent":0,"parameters":[2,{"list":[{"code":44,"parameters":[{"name":"Jump2","volume":90,"pitch":100,"pan":0}],"indent":null},{"code":14,"parameters":[0,0],"indent":null},{"code":0}],"repeat":false,"skippable":false,"wait":false}]},{"code":505,"indent":0,"parameters":[{"code":44,"parameters":[{"name":"Jump2","volume":90,"pitch":100,"pan":0}],"indent":null}]},{"code":505,"indent":0,"parameters":[{"code":14,"parameters":[0,0],"indent":null}]},{"code":101,"indent":0,"parameters":["Actor1",1,0,2]},{"code":401,"indent":0,"parameters":["レイチェル"]},{"code":401,"indent":0,"parameters":["「あ！　待ってよ、シドニー！」"]},{"code":230,"indent":0,"parameters":[60]},{"code":201,"indent":0,"parameters":[0,9,0,0,0,0]},{"code":0,"indent":0,"parameters":[]}],"moveFrequency":3,"moveRoute":{"list":[{"code":0,"parameters":[]}],"repeat":true,"skippable":false,"wait":false},"moveSpeed":3,"moveType":0,"priorityType":0,"stepAnime":false,"through":false,"trigger":3,"walkAnime":true}],"x":0,"y":0}
]
}